<?xml version="1.0" encoding="UTF-8" standalone="no"?>
<svg width="177px" height="177px" viewBox="0 0 177 177" version="1.1" xmlns="http://www.w3.org/2000/svg" xmlns:xlink="http://www.w3.org/1999/xlink">
    <!-- Generator: Sketch 39 (31667) - http://www.bohemiancoding.com/sketch -->
    <title>research icon update</title>
    <desc>Created with Sketch.</desc>
    <defs></defs>
    <g id="Page-1" stroke="none" stroke-width="1" fill="none" fill-rule="evenodd">
        <g id="Services" transform="translate(-575.000000, -1113.000000)">
            <g id="research-icon-update" transform="translate(577.000000, 1115.000000)">
                <path d="M86.2993895,172.640215 C133.960897,172.640215 172.598779,133.994148 172.598779,86.3225441 C172.598779,38.6460664 133.960897,0 86.2993895,0 C38.6378816,0 0,38.6460664 0,86.3225441 C0,133.994148 38.6378816,172.640215 86.2993895,172.640215" id="Fill-1" stroke="#2C6BA1" stroke-width="3"></path>
                <path d="M44.4067395,38.1025941 C43.5117793,38.1165482 42.7966199,38.8485878 42.8071285,39.7399612 L42.8071285,126.710035 C42.648275,127.291406 42.8268137,127.912536 43.270507,128.322114 C43.6809351,128.74333 44.2881648,128.910245 44.8574235,128.758325 L132.182128,128.758325 C132.76816,128.766577 133.313256,128.459929 133.60869,127.955802 C133.904124,127.451675 133.904124,126.828173 133.60869,126.324047 C133.313256,125.81992 132.76816,125.513272 132.182128,125.521524 L46.0571285,125.521524 L46.0571285,39.7399612 C46.0622789,39.3030518 45.8898456,38.8826283 45.5790259,38.5742611 C45.2682063,38.2658939 44.8454074,38.0957816 44.4067395,38.1025941 L44.4067395,38.1025941 Z" id="Path" fill="#2C6BA1"></path>
                <path d="M128.957521,57.6055877 C126.28438,57.6055877 124.082521,59.7985207 124.082521,62.46079 C124.082521,63.2942664 124.319738,64.0668391 124.698243,64.7556305 L101.573729,90.3465927 C100.997823,90.1070694 100.366689,89.9736031 99.7075208,89.9736031 C98.959738,89.9736031 98.2552778,90.1548348 97.619139,90.4603889 L87.8374028,80.7183737 C88.1439753,80.0849316 88.3325208,79.389262 88.3325208,78.6447977 C88.3325208,75.9825284 86.130662,73.7895954 83.4575208,73.7895954 C80.7843795,73.7895954 78.5825208,75.9825284 78.5825208,78.6447977 C78.5825208,79.2895686 78.7170383,79.900353 78.950684,80.4654986 L56.5434583,100.309872 C55.8452933,99.9230746 55.055982,99.6840077 54.2075208,99.6840077 C51.5343828,99.6840077 49.3325208,101.876941 49.3325208,104.53921 C49.3325208,107.201479 51.5343828,109.394412 54.2075208,109.394412 C56.880662,109.394412 59.0825208,107.201479 59.0825208,104.53921 C59.0825208,103.896705 58.9465375,103.282036 58.7143543,102.718509 L81.1279305,82.8741353 C81.8246525,83.258991 82.6115425,83.5 83.4575208,83.5 C84.203581,83.5 84.9045345,83.3121231 85.539552,83.0068927 L95.3276355,92.7552294 C95.0225905,93.3873767 94.8325208,94.0862831 94.8325208,94.8288054 C94.8325208,97.4910747 97.0343795,99.6840077 99.7075208,99.6840077 C102.380662,99.6840077 104.582521,97.4910747 104.582521,94.8288054 C104.582521,93.995329 104.3453,93.2161111 103.966799,92.5276402 L127.097656,66.936678 C127.672065,67.1762013 128.300465,67.3159923 128.957521,67.3159923 C131.630662,67.3159923 133.832521,65.1230592 133.832521,62.46079 C133.832521,59.7985207 131.630662,57.6055877 128.957521,57.6055877 L128.957521,57.6055877 Z" id="Path" fill="#2C6BA1"></path>
            </g>
        </g>
    </g>
</svg>